^E:\INFO\UBB\SEM 2\DSA\SORTEDMULTIMAP_ON_HASHTABLE\SORTEDMULTIMAP_ON_HASHTABLE\MAIN.CPP|E:\INFO\UBB\SEM 2\DSA\SORTEDMULTIMAP_ON_HASHTABLE\SORTEDMULTIMAP_ON_HASHTABLE\SORTEDMULTIMAP.CPP|E:\INFO\UBB\SEM 2\DSA\SORTEDMULTIMAP_ON_HASHTABLE\SORTEDMULTIMAP_ON_HASHTABLE\UI.CPP
E:\INFO\UBB\SEM 2\DSA\SORTEDMULTIMAP_ON_HASHTABLE\SORTEDMULTIMAP_ON_HASHTABLE\DEBUG\VC141.PDB
E:\INFO\UBB\SEM 2\DSA\SORTEDMULTIMAP_ON_HASHTABLE\SORTEDMULTIMAP_ON_HASHTABLE\DEBUG\VC141.IDB
E:\INFO\UBB\SEM 2\DSA\SORTEDMULTIMAP_ON_HASHTABLE\SORTEDMULTIMAP_ON_HASHTABLE\DEBUG\MAIN.OBJ
E:\INFO\UBB\SEM 2\DSA\SORTEDMULTIMAP_ON_HASHTABLE\SORTEDMULTIMAP_ON_HASHTABLE\DEBUG\UI.OBJ
E:\INFO\UBB\SEM 2\DSA\SORTEDMULTIMAP_ON_HASHTABLE\SORTEDMULTIMAP_ON_HASHTABLE\DEBUG\SORTEDMULTIMAP.OBJ
^E:\INFO\UBB\SEM 2\DSA\SORTEDMULTIMAP_ON_HASHTABLE\SORTEDMULTIMAP_ON_HASHTABLE\MAIN.CPP
E:\INFO\UBB\SEM 2\DSA\SORTEDMULTIMAP_ON_HASHTABLE\SORTEDMULTIMAP_ON_HASHTABLE\DEBUG\VC141.PDB
E:\INFO\UBB\SEM 2\DSA\SORTEDMULTIMAP_ON_HASHTABLE\SORTEDMULTIMAP_ON_HASHTABLE\DEBUG\VC141.IDB
E:\INFO\UBB\SEM 2\DSA\SORTEDMULTIMAP_ON_HASHTABLE\SORTEDMULTIMAP_ON_HASHTABLE\DEBUG\MAIN.OBJ
^E:\INFO\UBB\SEM 2\DSA\SORTEDMULTIMAP_ON_HASHTABLE\SORTEDMULTIMAP_ON_HASHTABLE\SORTEDMULTIMAP.CPP
E:\INFO\UBB\SEM 2\DSA\SORTEDMULTIMAP_ON_HASHTABLE\SORTEDMULTIMAP_ON_HASHTABLE\DEBUG\VC141.PDB
E:\INFO\UBB\SEM 2\DSA\SORTEDMULTIMAP_ON_HASHTABLE\SORTEDMULTIMAP_ON_HASHTABLE\DEBUG\VC141.IDB
E:\INFO\UBB\SEM 2\DSA\SORTEDMULTIMAP_ON_HASHTABLE\SORTEDMULTIMAP_ON_HASHTABLE\DEBUG\SORTEDMULTIMAP.OBJ
^E:\INFO\UBB\SEM 2\DSA\SORTEDMULTIMAP_ON_HASHTABLE\SORTEDMULTIMAP_ON_HASHTABLE\UI.CPP
E:\INFO\UBB\SEM 2\DSA\SORTEDMULTIMAP_ON_HASHTABLE\SORTEDMULTIMAP_ON_HASHTABLE\DEBUG\VC141.PDB
E:\INFO\UBB\SEM 2\DSA\SORTEDMULTIMAP_ON_HASHTABLE\SORTEDMULTIMAP_ON_HASHTABLE\DEBUG\VC141.IDB
E:\INFO\UBB\SEM 2\DSA\SORTEDMULTIMAP_ON_HASHTABLE\SORTEDMULTIMAP_ON_HASHTABLE\DEBUG\UI.OBJ
^E:\INFO\UBB\SEM 2\DSA\SORTEDMULTIMAP_ON_HASHTABLE\SORTEDMULTIMAP_ON_HASHTABLE\SORTEDMULTIMAP.CPP|E:\INFO\UBB\SEM 2\DSA\SORTEDMULTIMAP_ON_HASHTABLE\SORTEDMULTIMAP_ON_HASHTABLE\UI.CPP
E:\INFO\UBB\SEM 2\DSA\SORTEDMULTIMAP_ON_HASHTABLE\SORTEDMULTIMAP_ON_HASHTABLE\DEBUG\VC141.PDB
E:\INFO\UBB\SEM 2\DSA\SORTEDMULTIMAP_ON_HASHTABLE\SORTEDMULTIMAP_ON_HASHTABLE\DEBUG\VC141.IDB
E:\INFO\UBB\SEM 2\DSA\SORTEDMULTIMAP_ON_HASHTABLE\SORTEDMULTIMAP_ON_HASHTABLE\DEBUG\SORTEDMULTIMAP.OBJ
^E:\INFO\UBB\SEM 2\DSA\SORTEDMULTIMAP_ON_HASHTABLE\SORTEDMULTIMAP_ON_HASHTABLE\MAIN.CPP|E:\INFO\UBB\SEM 2\DSA\SORTEDMULTIMAP_ON_HASHTABLE\SORTEDMULTIMAP_ON_HASHTABLE\SORTEDMULTIMAP.CPP
E:\INFO\UBB\SEM 2\DSA\SORTEDMULTIMAP_ON_HASHTABLE\SORTEDMULTIMAP_ON_HASHTABLE\DEBUG\VC141.PDB
E:\INFO\UBB\SEM 2\DSA\SORTEDMULTIMAP_ON_HASHTABLE\SORTEDMULTIMAP_ON_HASHTABLE\DEBUG\VC141.IDB
E:\INFO\UBB\SEM 2\DSA\SORTEDMULTIMAP_ON_HASHTABLE\SORTEDMULTIMAP_ON_HASHTABLE\DEBUG\SORTEDMULTIMAP.OBJ
E:\INFO\UBB\SEM 2\DSA\SORTEDMULTIMAP_ON_HASHTABLE\SORTEDMULTIMAP_ON_HASHTABLE\DEBUG\MAIN.OBJ
^E:\INFO\UBB\SEM 2\DSA\SORTEDMULTIMAP_ON_HASHTABLE\SORTEDMULTIMAP_ON_HASHTABLE\MAIN.CPP|E:\INFO\UBB\SEM 2\DSA\SORTEDMULTIMAP_ON_HASHTABLE\SORTEDMULTIMAP_ON_HASHTABLE\SORTEDMULTIMAP.CPP|E:\INFO\UBB\SEM 2\DSA\SORTEDMULTIMAP_ON_HASHTABLE\SORTEDMULTIMAP_ON_HASHTABLE\TESTE.CPP|E:\INFO\UBB\SEM 2\DSA\SORTEDMULTIMAP_ON_HASHTABLE\SORTEDMULTIMAP_ON_HASHTABLE\UI.CPP
E:\INFO\UBB\SEM 2\DSA\SORTEDMULTIMAP_ON_HASHTABLE\SORTEDMULTIMAP_ON_HASHTABLE\DEBUG\VC141.PDB
E:\INFO\UBB\SEM 2\DSA\SORTEDMULTIMAP_ON_HASHTABLE\SORTEDMULTIMAP_ON_HASHTABLE\DEBUG\VC141.IDB
E:\INFO\UBB\SEM 2\DSA\SORTEDMULTIMAP_ON_HASHTABLE\SORTEDMULTIMAP_ON_HASHTABLE\DEBUG\SORTEDMULTIMAP.OBJ
E:\INFO\UBB\SEM 2\DSA\SORTEDMULTIMAP_ON_HASHTABLE\SORTEDMULTIMAP_ON_HASHTABLE\DEBUG\TESTE.OBJ
E:\INFO\UBB\SEM 2\DSA\SORTEDMULTIMAP_ON_HASHTABLE\SORTEDMULTIMAP_ON_HASHTABLE\DEBUG\MAIN.OBJ
E:\INFO\UBB\SEM 2\DSA\SORTEDMULTIMAP_ON_HASHTABLE\SORTEDMULTIMAP_ON_HASHTABLE\DEBUG\UI.OBJ
^E:\INFO\UBB\SEM 2\DSA\SORTEDMULTIMAP_ON_HASHTABLE\SORTEDMULTIMAP_ON_HASHTABLE\TESTE.CPP
E:\INFO\UBB\SEM 2\DSA\SORTEDMULTIMAP_ON_HASHTABLE\SORTEDMULTIMAP_ON_HASHTABLE\DEBUG\VC141.PDB
E:\INFO\UBB\SEM 2\DSA\SORTEDMULTIMAP_ON_HASHTABLE\SORTEDMULTIMAP_ON_HASHTABLE\DEBUG\VC141.IDB
E:\INFO\UBB\SEM 2\DSA\SORTEDMULTIMAP_ON_HASHTABLE\SORTEDMULTIMAP_ON_HASHTABLE\DEBUG\TESTE.OBJ
^E:\INFO\UBB\SEM 2\DSA\SORTEDMULTIMAP_ON_HASHTABLE\SORTEDMULTIMAP_ON_HASHTABLE\MAIN.CPP|E:\INFO\UBB\SEM 2\DSA\SORTEDMULTIMAP_ON_HASHTABLE\SORTEDMULTIMAP_ON_HASHTABLE\TESTE.CPP
E:\INFO\UBB\SEM 2\DSA\SORTEDMULTIMAP_ON_HASHTABLE\SORTEDMULTIMAP_ON_HASHTABLE\DEBUG\VC141.PDB
E:\INFO\UBB\SEM 2\DSA\SORTEDMULTIMAP_ON_HASHTABLE\SORTEDMULTIMAP_ON_HASHTABLE\DEBUG\VC141.IDB
E:\INFO\UBB\SEM 2\DSA\SORTEDMULTIMAP_ON_HASHTABLE\SORTEDMULTIMAP_ON_HASHTABLE\DEBUG\TESTE.OBJ
E:\INFO\UBB\SEM 2\DSA\SORTEDMULTIMAP_ON_HASHTABLE\SORTEDMULTIMAP_ON_HASHTABLE\DEBUG\MAIN.OBJ
^E:\INFO\UBB\SEM 2\DSA\SORTEDMULTIMAP_ON_HASHTABLE\SORTEDMULTIMAP_ON_HASHTABLE\MAIN.CPP|E:\INFO\UBB\SEM 2\DSA\SORTEDMULTIMAP_ON_HASHTABLE\SORTEDMULTIMAP_ON_HASHTABLE\UI.CPP
E:\INFO\UBB\SEM 2\DSA\SORTEDMULTIMAP_ON_HASHTABLE\SORTEDMULTIMAP_ON_HASHTABLE\DEBUG\VC141.PDB
E:\INFO\UBB\SEM 2\DSA\SORTEDMULTIMAP_ON_HASHTABLE\SORTEDMULTIMAP_ON_HASHTABLE\DEBUG\VC141.IDB
E:\INFO\UBB\SEM 2\DSA\SORTEDMULTIMAP_ON_HASHTABLE\SORTEDMULTIMAP_ON_HASHTABLE\DEBUG\UI.OBJ
E:\INFO\UBB\SEM 2\DSA\SORTEDMULTIMAP_ON_HASHTABLE\SORTEDMULTIMAP_ON_HASHTABLE\DEBUG\MAIN.OBJ
