^E:\INFO\UBB\SEM 2\DSA\SORTEDMULTIMAP_ON_HASHTABLE\SORTEDMULTIMAP_ON_HASHTABLE\DEBUG\MAIN.OBJ|E:\INFO\UBB\SEM 2\DSA\SORTEDMULTIMAP_ON_HASHTABLE\SORTEDMULTIMAP_ON_HASHTABLE\DEBUG\SORTEDMULTIMAP.OBJ|E:\INFO\UBB\SEM 2\DSA\SORTEDMULTIMAP_ON_HASHTABLE\SORTEDMULTIMAP_ON_HASHTABLE\DEBUG\TESTE.OBJ|E:\INFO\UBB\SEM 2\DSA\SORTEDMULTIMAP_ON_HASHTABLE\SORTEDMULTIMAP_ON_HASHTABLE\DEBUG\UI.OBJ
E:\INFO\UBB\SEM 2\DSA\SORTEDMULTIMAP_ON_HASHTABLE\DEBUG\SORTEDMULTIMAP_ON_HASHTABLE.EXE
E:\INFO\UBB\SEM 2\DSA\SORTEDMULTIMAP_ON_HASHTABLE\DEBUG\SORTEDMULTIMAP_ON_HASHTABLE.ILK
E:\INFO\UBB\SEM 2\DSA\SORTEDMULTIMAP_ON_HASHTABLE\DEBUG\SORTEDMULTIMAP_ON_HASHTABLE.PDB
